{ "JobId" : "01adaaae07412ab4a45", "JobTitle" : "Make E-commerce", "ApplicationUrl" : "https://www.odesk.com/jobs/Angular-Developer-designer_~01adaaae07412ab4a45", "MessageUrl" : "", "Interviews" : 3, "LeadType" : "fix", "CurrentStatus" : "Test Project", "ClientName" : "John", "date" : { "$date" : 1400855109000 }, "_id" : { "$oid" : "54f5b6c5a4cd361055001e0d" } }
{ "JobId" : "0112e21262c9f58ed5", "JobTitle" : "Looking for Wordpress experts.", "ApplicationUrl" : "https://www.odesk.com/applications/270593537", "MessageUrl" : "", "Interviews" : 7, "LeadType" : "hour", "CurrentStatus" : "Replied/ Skype request sent", "ClientName" : "Joe E", "date" : { "$date" : 1401056724000 }, "_id" : { "$oid" : "54f5b6c5a4cd361055001e15" } }
{ "JobId" : "0138f22d0c25c2cbrg", "JobTitle" : "SSACSA", "ApplicationUrl" : "http://www.test.com", "MessageUrl" : "http://www.try.com", "Interviews" : 46, "LeadType" : "hour", "CurrentStatus" : "qdw", "ClientName" : "Sachin Sharma", "date" : { "$date" : 1401056724000 }, "_id" : { "$oid" : "54f5b6c5a4cd361055001e16" } }
{ "JobId" : "553897", "JobTitle" : "try", "ApplicationUrl" : "http://www.test.com", "MessageUrl" : "https://www.odesk.com/mc/#thread/29856038", "Interviews" : 6, "BidAmount" : 4500, "LeadType" : "hour", "CurrentStatus" : "gnghn", "ClientName" : "sachin", "date" : { "$date" : 1401091643000 }, "_id" : { "$oid" : "54f5b6c5a4cd361055001e19" } }
{ "JobId" : "593897", "JobTitle" : "try", "ApplicationUrl" : "http://www.test.com", "MessageUrl" : "http://www.try.com", "Interviews" : 6, "BidAmount" : 356.07, "LeadType" : "hour", "CurrentStatus" : "dvvf", "ClientName" : "sachin", "date" : { "$date" : 1401091643000 }, "_id" : { "$oid" : "54f5b6c5a4cd361055001e1a" } }
{ "JobId" : "0138f22d0c25c2", "JobTitle" : "azasdcvd", "ApplicationUrl" : "http://www.test.com", "MessageUrl" : "http://www.try.com", "Interviews" : 8, "BidAmount" : 4500.98, "LeadType" : "hour", "CurrentStatus" : "tht", "ClientName" : "Aman", "date" : { "$date" : 1401091643000 }, "_id" : { "$oid" : "54f5b6c5a4cd361055001e1b" } }
{ "JobId" : "0138f22d0c25", "JobTitle" : "asasdascf", "ApplicationUrl" : "http://www.app.com", "MessageUrl" : "http://www.msg.com", "Interviews" : 5, "BidAmount" : 490, "LeadType" : "hour", "CurrentStatus" : "dvdsvf", "ClientName" : "sachin", "date" : { "$date" : 1401091643000 }, "_id" : { "$oid" : "54f5b6c5a4cd361055001e1c" } }
{ "JobId" : "0138f22d0c25c2", "JobTitle" : "try", "ApplicationUrl" : "http://www.test.com", "MessageUrl" : "https://www.odesk.com/mc/#thread/29856038", "Interviews" : 6, "BidAmount" : 490, "LeadType" : "hour", "CurrentStatus" : "yuuyk", "ClientName" : "sachin", "date" : { "$date" : 1401091643000 }, "_id" : { "$oid" : "54f5b6c5a4cd361055001e1d" } }
{ "JobId" : "0138f", "JobTitle" : "try", "ApplicationUrl" : "http://www.app.com", "MessageUrl" : "https://www.odesk.com/mc/#thread/29856038", "Interviews" : 6, "BidAmount" : 490.78, "LeadType" : "hour", "CurrentStatus" : "mkjk", "ClientName" : "sachin", "date" : { "$date" : 1401091643000 }, "_id" : { "$oid" : "54f5b6c5a4cd361055001e1e" } }
{ "JobId" : "01304cff30267dbcc0", "JobTitle" : "Django open source project with datagrid front end", "ApplicationUrl" : "https://www.odesk.com/applications/269894044", "MessageUrl" : "https://www.odesk.com/mc/#thread/307822336", "Interviews" : 4, "BidAmount" : 17, "LeadType" : "hour", "CurrentStatus" : "Hired some other applicant", "ClientName" : "Humphrey Drummond", "date" : { "$date" : 1401091643000 }, "_id" : { "$oid" : "54f5b6c5a4cd361055001e1f" } }
{ "JobId" : "0162961410c9b51ff4", "JobTitle" : "HTML/CSS/JS, Backbone.js - full-time contract front-end developer position", "ApplicationUrl" : "https://www.odesk.com/applications/269973906", "MessageUrl" : "https://www.odesk.com/mc/#thread/308263131", "Interviews" : 5, "BidAmount" : 20, "LeadType" : "hour", "CurrentStatus" : "Client not replying", "ClientName" : "David Albert", "date" : { "$date" : 1401091643000 }, "_id" : { "$oid" : "54f5b6c5a4cd361055001e20" } }
{ "JobId" : "013d4e09ba2adda84a", "JobTitle" : "Python / Django / MongoDB Developer", "ApplicationUrl" : "https://www.odesk.com/applications/270070211", "MessageUrl" : "https://www.odesk.com/mc/#thread/308277274", "Interviews" : 6, "BidAmount" : 17, "LeadType" : "hour", "CurrentStatus" : "Hired some other applicant", "ClientName" : "sean Hynes", "date" : { "$date" : 1401091643000 }, "_id" : { "$oid" : "54f5b6c5a4cd361055001e21" } }
{ "JobId" : "015469e140d798e807", "JobTitle" : "Robust Ruby API Development", "ApplicationUrl" : "https://www.odesk.com/applications/270018001", "MessageUrl" : "https://www.odesk.com/mc/#thread/308391376", "Interviews" : 29, "BidAmount" : 16, "LeadType" : "hour", "CurrentStatus" : "Still Interviewing other candidates", "ClientName" : "Jeffrey Gray", "date" : { "$date" : 1401091643000 }, "_id" : { "$oid" : "54f5b6c5a4cd361055001e22" } }
{ "JobId" : "01daa6eb5b23524b26", "JobTitle" : "Expert in Nodejs, sailsjs and mongodb", "ApplicationUrl" : "https://www.odesk.com/applications/270123075", "MessageUrl" : "https://www.odesk.com/mc/#thread/308437214", "Interviews" : 4, "BidAmount" : 18, "LeadType" : "hour", "CurrentStatus" : "Hired some other applicant", "ClientName" : "Richard Junestrand", "date" : { "$date" : 1401091643000 }, "_id" : { "$oid" : "54f5b6c5a4cd361055001e23" } }
{ "JobId" : "016d249f7cb9c1f95d", "JobTitle" : "Python programmer with neural network experience", "ApplicationUrl" : "https://www.odesk.com/applications/270415270", "MessageUrl" : "https://www.odesk.com/mc/#thread/309749632", "Interviews" : 8, "BidAmount" : 21, "LeadType" : "hour", "CurrentStatus" : "Hired some other applicant", "ClientName" : "Liudmyla Karpova", "date" : { "$date" : 1401091643000 }, "_id" : { "$oid" : "54f5b6c5a4cd361055001e24" } }
{ "JobId" : "012fa9825b1163658e", "JobTitle" : "Need a html5/css/javascript Node.js Designer with some developer experience", "ApplicationUrl" : "https://www.odesk.com/applications/270555934", "MessageUrl" : "https://www.odesk.com/mc/#thread/309993402", "Interviews" : 4, "BidAmount" : 15, "LeadType" : "hour", "CurrentStatus" : "Estimate is sent", "ClientName" : "John Armada", "date" : { "$date" : 1401091643000 }, "_id" : { "$oid" : "54f5b6c5a4cd361055001e25" } }
{ "JobId" : "0118de784537c777b1", "JobTitle" : "Exceptional Front-End Developer", "ApplicationUrl" : "https://www.odesk.com/applications/270445181", "MessageUrl" : "https://www.odesk.com/mc/#thread/309831840", "Interviews" : 7, "BidAmount" : 19, "LeadType" : "hour", "CurrentStatus" : "Has shared details of his website with us/ SOLR/ Flask/ Angular work..need to do all front end work (angular) making an Estimate (parveen)", "ClientName" : "Afolabi Bamodu", "date" : { "$date" : 1401091643000 }, "_id" : { "$oid" : "54f5b6c5a4cd361055001e26" } }
{ "JobId" : "0104d46ee57b8e59a4", "JobTitle" : "VLC Player - Titanium Module for Android & iOS", "ApplicationUrl" : "https://www.odesk.com/applications/269695125", "MessageUrl" : "https://www.odesk.com/mc/#thread/307695364", "Interviews" : 4, "BidAmount" : 3150, "LeadType" : "fix", "CurrentStatus" : "Client is not replying, sent him titanium module", "ClientName" : "Bryan Dent", "date" : { "$date" : 1401091643000 }, "_id" : { "$oid" : "54f5b6c5a4cd361055001e27" } }
{ "JobId" : "01333c236647b2ab4e", "JobTitle" : "FULL APP Corona SDK or Appcelerator SDK", "ApplicationUrl" : "https://www.odesk.com/applications/270130796", "MessageUrl" : "https://www.odesk.com/mc/#thread/308450779", "Interviews" : 10, "BidAmount" : 1200, "LeadType" : "fix", "CurrentStatus" : "Job is closed/Nobody hired", "ClientName" : "Eric Palumbo", "date" : { "$date" : 1401091643000 }, "_id" : { "$oid" : "54f5b6c5a4cd361055001e28" } }
{ "JobId" : "014556c594f7a4d81c", "JobTitle" : "HTML5 Mobile Application with PhoneGap for Navigation GPS App + Backend", "ApplicationUrl" : "https://www.odesk.com/applications/270506727", "MessageUrl" : "https://www.odesk.com/mc/inbox/#thread/310254777", "Interviews" : 5, "BidAmount" : 1350, "LeadType" : "fix", "CurrentStatus" : "estimation made by Narendra sir, and sent to the client on oDesk.\npending at client end.", "ClientName" : "Jonathan/Anton", "date" : { "$date" : 1401145189000 }, "_id" : { "$oid" : "54f5b6c5a4cd361055001e2b" } }
{ "JobId" : "016c66543ab26c8e1f", "JobTitle" : "HMVC codeigniter work (e-commerce website)", "ApplicationUrl" : "https://www.odesk.com/jobs/HMVC-codeigniter-work-commerce-website_~016c66543ab26c8e1f", "MessageUrl" : "https://www.odesk.com/mc/#thread/308402769", "Interviews" : 14, "BidAmount" : 12, "LeadType" : "hour", "CurrentStatus" : "Price very low.", "ClientName" : "Gianni Kensenhuis", "date" : { "$date" : 1401171792000 }, "_id" : { "$oid" : "54f5b6c5a4cd361055001e2d" } }
{ "JobId" : "01013b8286eabd29df", "JobTitle" : "Altcoin price alerts.", "ApplicationUrl" : "https://www.odesk.com/jobs/Altcoin-price-alerts_~01013b8286eabd29df", "MessageUrl" : "https://www.odesk.com/mc/#thread/309157098", "Interviews" : 2, "BidAmount" : 16, "LeadType" : "hour", "CurrentStatus" : "Discussion going on. Asked for estimate.", "ClientName" : "Al T", "date" : { "$date" : 1401174296000 }, "_id" : { "$oid" : "54f5b6c5a4cd361055001e2f" } }
{ "JobId" : "01f4a5fb8e739ebc79", "JobTitle" : "Keyword Search Query for Patent Database", "ApplicationUrl" : "https://www.odesk.com/jobs/Keyword-Search-Query-for-Patent-Database_~01f4a5fb8e739ebc79", "MessageUrl" : "https://www.odesk.com/mc/#thread/309651691", "Interviews" : 4, "BidAmount" : 16, "LeadType" : "hour", "CurrentStatus" : "Still in process.", "ClientName" : "Andrew Hunt", "date" : { "$date" : 1401174296000 }, "_id" : { "$oid" : "54f5b6c5a4cd361055001e30" } }
{ "JobId" : "01934e34b646f8e8f5", "JobTitle" : "I need a talented and creative programmer for a jumping game", "ApplicationUrl" : "https://www.odesk.com/applications/270618741", "MessageUrl" : "https://www.odesk.com/mc/#thread/310977353", "Interviews" : 14, "BidAmount" : 18, "LeadType" : "hour", "CurrentStatus" : "Client is ready to chat with us on Skype but Skype id is pending,\nestimation sent to the client, approved by Narendra sir.", "ClientName" : "Khairul Anuar", "date" : { "$date" : 1401231902000 }, "_id" : { "$oid" : "54f5b6c5a4cd361055001e33" } }
{ "JobId" : "023", "JobTitle" : "ddvg", "ApplicationUrl" : "http://www.test.com", "MessageUrl" : "https://www.odesk.com/mc/#thread/29856038", "Interviews" : 6, "BidAmount" : 45674.78, "LeadType" : "hour", "CurrentStatus" : "yku", "ClientName" : "sachin", "date" : { "$date" : 1401231902000 }, "_id" : { "$oid" : "54f5b6c5a4cd361055001e34" } }
{ "JobId" : "0143fe95cd8ba01e47", "JobTitle" : "Coffeescripter that likes puzzling", "ApplicationUrl" : "https://www.odesk.com/applications/270446413", "MessageUrl" : "https://www.odesk.com/mc/#thread/311420632", "Interviews" : 4, "BidAmount" : 16, "LeadType" : "hour", "CurrentStatus" : "Wanted us to take the test", "ClientName" : "Maurice Kroon", "date" : { "$date" : 1401347114000 }, "_id" : { "$oid" : "54f5b6c5a4cd361055001e39" } }
{ "JobId" : "01d76feda6a3c2a758", "JobTitle" : "Needed skilled PHP/mySQL Programmer for ground up development", "ApplicationUrl" : "https://www.odesk.com/applications/271057445", "MessageUrl" : "https://www.odesk.com/mc/#thread/311591774", "Interviews" : 18, "BidAmount" : 15, "LeadType" : "hour", "CurrentStatus" : "Replied, Client want a group interview of us with other odeskers.", "ClientName" : "SAIDI WRIGHT", "date" : { "$date" : 1401404722000 }, "_id" : { "$oid" : "54f5b6c5a4cd361055001e3c" } }
{ "JobId" : "52348", "JobTitle" : "try", "ApplicationUrl" : "http://www.try.com", "MessageUrl" : "", "Interviews" : 3, "BidAmount" : 456, "LeadType" : "hour", "CurrentStatus" : "trying", "ClientName" : "sachin", "date" : { "$date" : 1401688179000 }, "_id" : { "$oid" : "54f5b6c5a4cd361055001e44" } }
{ "JobId" : "01c270aa6f58501d30", "JobTitle" : "Iphone Travel App Update", "ApplicationUrl" : "https://www.odesk.com/applications/269969776", "MessageUrl" : "https://www.odesk.com/mc/#thread/311706720", "Interviews" : 18, "BidAmount" : 15, "LeadType" : "hour", "CurrentStatus" : "We signed NDA and client has shared details with us, Plus added us on skype", "ClientName" : "John Dziak", "date" : { "$date" : 1401716981000 }, "_id" : { "$oid" : "54f5b6c5a4cd361055001e46" } }
{ "JobId" : "017c1b9514f0363bd1", "JobTitle" : "Fix our current Corona SDK game on iTune", "ApplicationUrl" : "https://www.odesk.com/applications/271359953", "MessageUrl" : "https://www.odesk.com/mc/#thread/312428302", "Interviews" : 5, "BidAmount" : 15, "LeadType" : "hour", "CurrentStatus" : "Sent him similar sample", "ClientName" : "Billy Chau", "date" : { "$date" : 1401777460000 }, "_id" : { "$oid" : "54f5b6c5a4cd361055001e53" } }
{ "JobId" : "017c8b5170431a58e2", "JobTitle" : "Full Time E-mail Marketing Position", "ApplicationUrl" : "https://www.odesk.com/jobs/Full-Time-mail-Marketing-Position_~017c8b5170431a58e2", "MessageUrl" : "", "Interviews" : 6, "BidAmount" : 30, "LeadType" : "fix", "CurrentStatus" : "We asked for Skype id.", "ClientName" : "Geoffrey Weigel", "date" : { "$date" : 1401838163000 }, "_id" : { "$oid" : "54f5b6c5a4cd361055001e56" } }
{ "JobId" : "015d8b5497ee0f168a", "JobTitle" : "HH - Ruby Developer with strong TDD/BDD background (Full time/long term) - Urgent!", "ApplicationUrl" : "https://www.odesk.com/jobs/Ruby-Developer-with-strong-TDD-BDD-background-Full-time-long-term-Urgent_~015d8b5497ee0f168a", "MessageUrl" : "https://www.odesk.com/mc/#thread/312770248", "Interviews" : 6, "BidAmount" : 16, "LeadType" : "hour", "CurrentStatus" : "Client posted the job again. Asking for sample test.", "ClientName" : "Roserene Balana", "date" : { "$date" : 1401858100000 }, "_id" : { "$oid" : "54f5b6c5a4cd361055001e58" } }
{ "JobId" : "01dcd902973f35d861", "JobTitle" : "Parser to grab info from social media sites etc.", "ApplicationUrl" : "https://www.odesk.com/applications/271360840", "MessageUrl" : "https://www.odesk.com/mc/#thread/312947335", "Interviews" : 8, "BidAmount" : 19, "LeadType" : "hour", "CurrentStatus" : "Assigned a task", "ClientName" : "Kristian Holm", "date" : { "$date" : 1401886902000 }, "_id" : { "$oid" : "54f5b6c5a4cd361055001e5a" } }
{ "JobId" : "01e2d111d3023d4b6c", "JobTitle" : "Samsung galaxy s3 verizon sch1535 rooting maintenance", "ApplicationUrl" : "https://www.odesk.com/applications/270630832", "MessageUrl" : "", "Interviews" : 4, "BidAmount" : 15, "LeadType" : "hour", "CurrentStatus" : "Not feasible to develop this app", "ClientName" : "Robert Mccabe", "date" : { "$date" : 1401944503000 }, "_id" : { "$oid" : "54f5b6c5a4cd361055001e5d" } }
{ "JobId" : "0141c4a2390764c3a1", "JobTitle" : "Genealogy Fanchart code needed", "ApplicationUrl" : "https://www.odesk.com/applications/271498631https://www.odesk.com/applications/271498631https://www.odesk.com/applications/271498631https://www.odesk.com/applications/271498631https://www.odesk.com/applications/271498631https://www.odesk.com/applications/271498631https://www.odesk.com/applications/271498631https://www.odesk.com/applications/271498631https://www.odesk.com/applications/271498631", "MessageUrl" : "", "Interviews" : 1, "BidAmount" : 17, "LeadType" : "hour", "CurrentStatus" : "Client has directly hired us", "ClientName" : "Rich Agren", "date" : { "$date" : 1402380594000 }, "_id" : { "$oid" : "54f5b6c5a4cd361055001e6c" } }
{ "JobId" : "0141c4a2390764c", "JobTitle" : "test the crash", "ApplicationUrl" : "http://www.odesk.com/applications/271498", "MessageUrl" : "", "Interviews" : 1, "BidAmount" : 17, "LeadType" : "hour", "CurrentStatus" : "client has directly hired us", "ClientName" : "Sachin Sharma", "date" : { "$date" : 1402460282000 }, "_id" : { "$oid" : "54f5b6c5a4cd361055001e70" } }
{ "JobId" : "0141c4a2390764c3a", "JobTitle" : "again test the app", "ApplicationUrl" : "http://www.odesk.com/applications/271498", "MessageUrl" : "", "Interviews" : 1, "BidAmount" : 17, "LeadType" : "hour", "CurrentStatus" : "hired us directly", "ClientName" : "Rich Agren", "date" : { "$date" : 1402460282000 }, "_id" : { "$oid" : "54f5b6c5a4cd361055001e71" } }
{ "JobId" : "0141c4a2390764c", "JobTitle" : "test for crash", "ApplicationUrl" : "http://www.odesk.com/applications/271498", "MessageUrl" : "", "Interviews" : 2, "BidAmount" : 17, "LeadType" : "hour", "CurrentStatus" : "trying", "ClientName" : "Sam", "date" : { "$date" : 1402460282000 }, "_id" : { "$oid" : "54f5b6c5a4cd361055001e72" } }
{ "JobId" : "0141c4a2394c3a1", "JobTitle" : "test", "ApplicationUrl" : "http://www.test.com/234", "MessageUrl" : "", "Interviews" : 3, "BidAmount" : 23, "LeadType" : "fix", "CurrentStatus" : "Client has directly hired us directly", "ClientName" : "Sachin Sharma", "date" : { "$date" : 1402466997000 }, "_id" : { "$oid" : "54f5b6c5a4cd361055001e74" } }
{ "JobId" : "016a3679d99a90a298", "JobTitle" : "Email Marketing", "ApplicationUrl" : "https://www.odesk.com/jobs/Email-Marketing_~016a3679d99a90a298", "MessageUrl" : "https://www.odesk.com/mc/#thread/316229668", "Interviews" : 8, "BidAmount" : 4, "LeadType" : "hour", "CurrentStatus" : "On Odesk messages.", "ClientName" : "Eranga Kaneira", "date" : { "$date" : 1403085553000 }, "_id" : { "$oid" : "54f5b6c5a4cd361055001e8c" } }
{ "JobId" : "015d17a3454fcd9a10", "JobTitle" : "Twitter and facebook engagment expert i need more Likes and followers you must have either 10k Likes or followers", "ApplicationUrl" : "https://www.odesk.com/jobs/Twitter-and-facebook-engagment-expert-need-more-Likes-and-followers-you-must-have-either-10k-Likes-followers_~015d17a3454fcd9a10", "MessageUrl" : "", "Interviews" : 21, "BidAmount" : 4, "LeadType" : "hour", "CurrentStatus" : "does not match our rules. he is asking to work for 2 hours a week at a price of $2+fee and this turns out to be a very less amount for us. so we closed this job.", "ClientName" : "markl hudson", "date" : { "$date" : 1403085553000 }, "_id" : { "$oid" : "54f5b6c5a4cd361055001e8d" } }
{ "JobId" : "012e86b2c90e9f0a83", "JobTitle" : "Awesome Android / iOS App Developer Needed - Hiring Now", "ApplicationUrl" : "https://www.odesk.com/applications/272192450https://www.odesk.com/applications/272192450", "MessageUrl" : "https://www.odesk.com/mc/#thread/316384357", "Interviews" : 10, "BidAmount" : 1333, "LeadType" : "fix", "CurrentStatus" : "added on Skype ladyzelda29", "ClientName" : "zelda", "date" : { "$date" : 1403143158000 }, "_id" : { "$oid" : "54f5b6c5a4cd361055001e90" } }
{ "JobId" : "0169ca901cf7dec464", "JobTitle" : "Node.js developer to develop a Mobile backend", "ApplicationUrl" : "https://www.odesk.com/applications/272602360", "MessageUrl" : "https://www.odesk.com/mc/#thread/316296802", "Interviews" : 4, "BidAmount" : 18, "LeadType" : "hour", "CurrentStatus" : "client introduction  call done, document of requirement pending.", "ClientName" : "ramaprasanna", "date" : { "$date" : 1403143158000 }, "_id" : { "$oid" : "54f5b6c5a4cd361055001e91" } }
{ "JobId" : "01996cdcc5c15169a7", "JobTitle" : "Taking a website to the mobile", "ApplicationUrl" : "https://www.odesk.com/applications/272522022", "MessageUrl" : "https://www.odesk.com/mc/#thread/316667483", "Interviews" : 5, "BidAmount" : 13.5, "LeadType" : "hour", "CurrentStatus" : "client Added on Skype, meeting with client at 3 pm IST", "ClientName" : "Bryan Avery", "date" : { "$date" : 1403239884000 }, "_id" : { "$oid" : "54f5b6c5a4cd361055001e95" } }
{ "JobId" : "0112e646c3e3d76407", "JobTitle" : "Front end developer", "ApplicationUrl" : "https://www.odesk.com/applications/272986048", "MessageUrl" : "https://www.odesk.com/mc/inbox/#thread/317176217", "Interviews" : 7, "BidAmount" : 18, "LeadType" : "hour", "CurrentStatus" : "Added on Skype", "ClientName" : "Akhil Lodha", "date" : { "$date" : 1403487314000 }, "_id" : { "$oid" : "54f5b6c5a4cd361055001e9d" } }
{ "JobId" : "01aaf924cf5b6ea950", "JobTitle" : "Accept a challenge: Build Drone Lounge, a website for online drone control", "ApplicationUrl" : "https://www.odesk.com/applications/273142753", "MessageUrl" : "https://www.odesk.com/mc/#thread/317754554", "Interviews" : 2, "BidAmount" : 16.3, "LeadType" : "hour", "CurrentStatus" : "Discussion over odesk going on.\nclient message forwarded to the developer for client's queries.", "ClientName" : "James Pattison", "date" : { "$date" : 1403565458000 }, "_id" : { "$oid" : "54f5b6c5a4cd361055001ea0" } }
{ "JobId" : "013eeef663225d5ecb", "JobTitle" : "Paypal integration for Marketplace website", "ApplicationUrl" : "https://www.odesk.com/applications/272693041", "MessageUrl" : "https://www.odesk.com/mc/#thread/318595633", "Interviews" : 9, "BidAmount" : 12.15, "LeadType" : "hour", "CurrentStatus" : "Skype request sent, not added yet.", "ClientName" : "Nick", "date" : { "$date" : 1403825650000 }, "_id" : { "$oid" : "54f5b6c5a4cd361055001eaa" } }
{ "JobId" : "013d7649312133db3a", "JobTitle" : "Do you have a blog of facebook fan page? India Only", "ApplicationUrl" : "https://www.odesk.com/applications/272709051", "MessageUrl" : "https://www.odesk.com/mc/#thread/318583664", "Interviews" : 8, "BidAmount" : 4, "LeadType" : "hour", "CurrentStatus" : "Interview to be held on tuesday (1 july).", "ClientName" : "Lucas McEntee", "date" : { "$date" : 1403825650000 }, "_id" : { "$oid" : "54f5b6c5a4cd361055001eab" } }
{ "JobId" : "018fbc7d8770435178", "JobTitle" : "Flex to HTML5 migration", "ApplicationUrl" : "https://www.odesk.com/applications/273122834", "MessageUrl" : "https://www.odesk.com/mc/#thread/318127562", "Interviews" : 19, "BidAmount" : 1000, "LeadType" : "fix", "CurrentStatus" : "Still on Odesk messages.", "ClientName" : "Gil", "date" : { "$date" : 1403854453000 }, "_id" : { "$oid" : "54f5b6c5a4cd361055001ead" } }
{ "JobId" : "012c9ecd9999696385", "JobTitle" : "VTiger 6.0 - Scheduled Import guru", "ApplicationUrl" : "https://www.odesk.com/applications/273446596", "MessageUrl" : "https://www.odesk.com/mc/#thread/318677935", "Interviews" : 4, "BidAmount" : 21.1, "LeadType" : "hour", "CurrentStatus" : "Over Odesk. Client asked for few queries and we replied.", "ClientName" : "Jason Hall", "date" : { "$date" : 1403854453000 }, "_id" : { "$oid" : "54f5b6c5a4cd361055001eae" } }
{ "JobId" : "018f5c10b301c2cb77", "JobTitle" : "Work calendar view from Exchange data", "ApplicationUrl" : "https://www.odesk.com/applications/273356994", "MessageUrl" : "https://www.odesk.com/mc/#thread/319071974", "Interviews" : 21, "BidAmount" : 900, "LeadType" : "fix", "CurrentStatus" : "Revised Job description give to us now waiting for the clients reply.", "ClientName" : "Jonas Christoffersen", "date" : { "$date" : 1404084866000 }, "_id" : { "$oid" : "54f5b6c5a4cd361055001eb7" } }
{ "JobId" : "011414d6e9f7f92fe3", "JobTitle" : "Need Banner Ad Management for Wordpress / PHP website", "ApplicationUrl" : "https://www.odesk.com/applications/273912442", "MessageUrl" : "https://www.odesk.com/mc/#thread/319847372", "Interviews" : 4, "BidAmount" : 12.1, "LeadType" : "hour", "CurrentStatus" : "Discussion over Odesk.", "ClientName" : "Aryeh Rifkin", "date" : { "$date" : 1404258235000 }, "_id" : { "$oid" : "54f5b6c5a4cd361055001ebc" } }
{ "JobId" : "010aa91e3c206e5675", "JobTitle" : "Need Android customized keypad", "ApplicationUrl" : "https://www.odesk.com/applications/273821169", "MessageUrl" : "https://www.odesk.com/mc/inbox/#thread/319888104", "Interviews" : 1, "BidAmount" : 15, "LeadType" : "hour", "CurrentStatus" : "Client hired some one and said consider us for next assignment.", "ClientName" : "Young Park", "date" : { "$date" : 1404331066000 }, "_id" : { "$oid" : "54f5b6c5a4cd361055001ebf" } }
{ "JobId" : "018287863ef7b0d3fb", "JobTitle" : "Completing E-commerce site using Magento (Amazon FBA Integration Important)", "ApplicationUrl" : "https://www.odesk.com/applications/272189795", "MessageUrl" : "https://www.odesk.com/mc/inbox/#thread/319819448", "Interviews" : 20, "BidAmount" : 12, "LeadType" : "hour", "CurrentStatus" : "we are in pipeline", "ClientName" : "Matthew Marsille", "date" : { "$date" : 1404331066000 }, "_id" : { "$oid" : "54f5b6c5a4cd361055001ec0" } }
{ "JobId" : "01b87da3c31393e750", "JobTitle" : "Experienced Xamarin Developer/ UI Designer needed!", "ApplicationUrl" : "https://www.odesk.com/applications/273836730", "MessageUrl" : "https://www.odesk.com/mc/inbox/#thread/319751464", "Interviews" : 3, "BidAmount" : 1750, "LeadType" : "fix", "CurrentStatus" : "We are in pipeline.", "ClientName" : "Paal Christian Thorsen", "date" : { "$date" : 1404331066000 }, "_id" : { "$oid" : "54f5b6c5a4cd361055001ec1" } }
{ "JobId" : "014f6dc94315d0e0c8", "JobTitle" : "Building a \"Green\" brand around used Information Technology Assets.", "ApplicationUrl" : "https://www.odesk.com/applications/274024224", "MessageUrl" : "https://www.odesk.com/mc/#thread/320276290", "Interviews" : 1, "BidAmount" : 12.1, "LeadType" : "hour", "CurrentStatus" : "Hired us.", "ClientName" : "Gaylen Brown", "date" : { "$date" : 1404415761000 }, "_id" : { "$oid" : "54f5b6c5a4cd361055001ec4" } }
{ "JobId" : "013974b6e4baaeb98e", "JobTitle" : "Backbone js Expert Needed", "ApplicationUrl" : "https://www.odesk.com/applications/274349886", "MessageUrl" : "https://www.odesk.com/mc/#thread/321052247", "Interviews" : 6, "BidAmount" : 20, "LeadType" : "hour", "CurrentStatus" : "Added on Skype: zhang.yan0310", "ClientName" : "Zhang Yan", "date" : { "$date" : 1404695240000 }, "_id" : { "$oid" : "54f5b6c5a4cd361055001ecd" } }
{ "ApplicationUrl" : "https://www.odesk.com/jobs/IOS-Front-End-Designer-Need-convert-Symfony2-web-app-into-IOS-apple-App_~01bdcc138a33c67a89123", "BidAmount" : 123, "CurrentStatus" : "test", "Interviews" : 1, "JobId" : "01bdcc138a33c67a89123", "JobTitle" : "Test", "LeadType" : "Fixed", "MessageUrl" : "", "ModifiedDate" : { "$date" : 1425532732022 }, "_id" : { "$oid" : "54f7e72e5120376415000002" }, "date" : { "$date" : 1425532717238 } }
{ "JobId" : "01d2225551dbabf76134", "JobTitle" : "Test", "ApplicationUrl" : "https://www.odesk.com/jobs/Node-OSC-MaxMSP_~01d2225551dbabf76134", "MessageUrl" : "https://www.odesk.com/jobs/Node-OSC-MaxMSP_~01d2225551dbabf76134", "Interviews" : 1, "BidAmount" : 12, "LeadType" : "Fixed", "CurrentStatus" : "TEst", "date" : { "$date" : 1426083013167 }, "_id" : { "$oid" : "55004cc65ff179e409000002" } }
{ "JobId" : "01a706c67ed80542de60", "JobTitle" : "test", "ApplicationUrl" : "https://www.odesk.com/jobs/Web-App-Simple-sign-login-and-dashboard_~01a706c67ed80542de60", "MessageUrl" : "", "Interviews" : 1, "BidAmount" : 1234, "LeadType" : "Fixed", "CurrentStatus" : "test", "date" : { "$date" : 1426153310417 }, "_id" : { "$oid" : "55015e3a5d6a2b0c0a000002" } }
{ "JobId" : "01a706ced80542de6056", "JobTitle" : "test", "ApplicationUrl" : "https://www.odesk.com/jobs/Web-App-Simple-sign-login-and-dashboard_~01a706ced80542de6056", "MessageUrl" : "", "Interviews" : 12, "BidAmount" : 12, "LeadType" : "Fixed", "CurrentStatus" : "test", "date" : { "$date" : 1426153911016 }, "_id" : { "$oid" : "550160725d6a2b0c0a000009" } }
{ "JobId" : "01a706ced80542de6012345", "JobTitle" : "TEST123", "ApplicationUrl" : "https://www.odesk.com/jobs/Web-App-Simple-sign-login-and-dashboard_~01a706ced80542de6012345", "MessageUrl" : "", "Interviews" : 12, "BidAmount" : 12, "LeadType" : "Fixed", "CurrentStatus" : "test", "date" : { "$date" : 1426162409308 }, "_id" : { "$oid" : "550181a45d6a2b0c0a000015" } }
